3 400 500 600 10 9 11
8 400 600 600 11 9 10 14 9 9 13 15
8 400 500 600 11 9 10 14 9 9 13 15
24 750 500 750 10 2 2 2 10 2 2 2 10 2 2 2 10 2 2 2 10 2 2 2 10 2 2 2
24 750 501 750 10 2 2 2 10 2 2 2 10 2 2 2 10 2 2 2 10 2 2 2 10 2 2 2
24 750 750 750 10 2 2 2 10 2 2 2 10 2 2 2 10 2 2 2 10 2 2 2 10 2 2 2
24 750 1500 750 10 2 2 2 10 2 2 2 10 2 2 2 10 2 2 2 10 2 2 2 10 2 2 2
24 750 1501 750 10 2 2 2 10 2 2 2 10 2 2 2 10 2 2 2 10 2 2 2 10 2 2 2
0
