Case 1:
yes: 3
yes: 3
no
yes: 2
0: 2
1: 4
2: 1
3: 1
0: 1
1: 1
2: 1
3: 2
4: 1
5: 2
yes: 3
0: 2
1: 4
2: 2
3: 2
0: 3
1: 5
2: 1
3: 1
yes: 0
no connections
0: 1
1: 3
2: 5
3: 1
4: 1
----------
Case 2:
yes: 3
yes: 3
no
yes: 2
0: 2
1: 4
2: 1
3: 1
0: 1
1: 1
2: 1
3: 2
4: 1
5: 2
yes: 3
0: 2
1: 4
2: 2
3: 2
0: 3
1: 5
2: 1
3: 1
yes: 0
no connections
0: 2
1: 3
2: 5
3: 1
4: 1
----------
Case 3:
0: 2347
1: 387
2: 42232
3: 24218
4: 13970
5: 1685
6: 738
7: 136
8: 61
9: 7
10: 9
0: 6656
1: 7616
2: 61578
3: 6635
4: 2085
5: 905
6: 185
7: 97
8: 27
9: 6
yes: 5
yes: 3
----------
