3 2 1
1 1
1 1
2

3 2 1
1 2
1 2
2

10 7 1
2 2
3 3
4 4
5 5
6 6
7 7
7 7
6

10 10 1
1 2
1 3
1 4
1 5
1 6
1 7
1 8
1 9
1 10
1 10
10

10 1 1
1 1
1

3 7 2
2 3
2 4
5 3
6 3
2 7
2 7
6 3
7 6

10 32 1
2 3
4 5
6 7
8 9
10 11
12 13
14 15
16 17
18 19
20 21
22 23
24 25
26 27
28 29
30 31
32 32
17 17
18 18
19 19
20 20
21 21
22 22
23 23
24 24
25 25
26 26
27 27
28 28
29 29
30 30
31 31
32 32
16

0 0 0
